recordLetter,time,RL,FL,FR,RR,collective,throttle
X,41002,-234,0,-242,-203,-3,1619
X,41384,-234,0,-242,-203,-3,1620
X,41792,-234,0,-242,-203,-3,1622
X,42292,-234,0,-242,-203,-3,1620
X,42790,-234,0,-242,-203,-3,1618
X,43290,-234,0,-242,-203,-3,1618
X,43790,-234,0,-242,-203,-3,1620
X,44289,-234,0,-242,-203,-3,1618
X,44789,-234,0,-242,-203,-3,1620
Y,85363,-232,0,-242,-201,-3,1618
Y,85932,-233,0,-241,-201,-3,1618
Y,86431,-232,0,-241,-201,-3,1617
Y,86919,-232,0,-241,-201,-3,1619
Y,87420,-232,0,-241,-201,-3,1618
Y,87930,-232,0,-241,-201,-3,1618
Z,(2020, 11, 25, 3, 13, 42, 18, 0),-185,-231,-241,-200,-3,1618
Z,(2020, 11, 25, 3, 13, 42, 19, 0),-185,-231,-241,-200,-3,1619
Z,(2020, 11, 25, 3, 13, 42, 19, 0),-185,-231,-241,-200,-3,1617
Z,(2020, 11, 25, 3, 13, 42, 20, 0),-185,10,-241,-200,-3,1617
Z,(2020, 11, 25, 3, 13, 42, 20, 0),-185,10,-241,-200,-3,1620
Z,(2020, 11, 25, 3, 13, 42, 21, 0),-185,-231,-241,-200,-3,1619
Z,(2020, 11, 25, 3, 13, 42, 21, 0),-185,-231,-241,-200,-3,1618
Z,(2020, 11, 25, 3, 13, 42, 22, 0),-185,-231,-241,-200,-3,1619
Z,(2020, 11, 25, 3, 13, 42, 22, 0),-185,-231,-241,-200,-3,1621
Z,(2020, 11, 25, 3, 13, 42, 23, 0),-185,-231,-241,-200,-3,1619
Z,(2020, 11, 25, 3, 13, 42, 23, 0),-185,-231,-241,-200,-3,1618
A,7,-185,-231,-241,0,-3,1619
A,8,-185,-231,-241,-200,-3,1620
A,9,-185,-231,-241,-200,-3,1620
A,9,-185,-231,-241,-200,-3,1620
A,11,-185,-231,-241,-200,-3,1618
A,11,-185,-231,-241,-200,-3,1619
A,11,-185,-231,-241,-200,-3,1621
A,12,-185,-231,-241,-200,-3,1620
A,12,-185,-231,-241,-200,-3,1619
C,25/11/2020 13:51,-185,-229,-241,-199,-3,1620
C,25/11/2020 13:51,-185,-229,-241,-199,-3,1622
C,25/11/2020 13:51,-185,-229,-241,-199,-3,1623
C,25/11/2020 13:51,-185,-229,-241,-199,-3,1622
C,25/11/2020 13:51,-185,-229,-241,-199,-3,1619
C,25/11/2020 13:51,-185,-229,-241,-199,-3,1620
C,25/11/2020 13:51,-185,-231,-241,-199,-3,1621
C,25/11/2020 13:51,-185,-231,-241,-199,-3,1620
C,25/11/2020 13:51,-185,-231,-241,-199,-3,1619
C,25/11/2020 13:51,-185,-231,-241,-199,-3,1620
C,25/11/2020 13:51,-185,-231,-241,-199,-3,1619
C,25/11/2020 13:51,-185,-231,-241,-199,-3,1621
C,25/11/2020 13:51,-185,-231,-241,-199,-3,1620
C,25/11/2020 13:51,-185,-231,-241,-199,-3,1618
C,25/11/2020 13:51,-185,-231,-241,-199,-3,1620
C,25/11/2020 13:51,-185,-231,-241,-199,-3,1621
C,25/11/2020 13:51,-185,-231,-241,-199,-4,1608
C,25/11/2020 13:51,-185,-231,-241,-199,-4,1601
C,25/11/2020 13:51,-185,-231,-241,90,-3,1619
C,25/11/2020 13:51,-185,-231,-241,-199,-3,1620
D,25/11/2020 13:55,-185,-232,-241,-202,-3,1621
D,25/11/2020 13:55,-185,-232,-241,-202,-3,1621
D,25/11/2020 13:55,-185,-231,-241,-202,-4,1617
D,25/11/2020 13:55,-185,-231,-241,-202,-3,1620
D,25/11/2020 13:55,-185,-231,-241,-202,-3,1621
D,25/11/2020 13:55,-185,-232,-241,-202,-3,1620
D,25/11/2020 13:55,-185,-232,-241,-202,-3,1622
D,25/11/2020 13:55,-185,-232,-241,-202,-3,1620
D,25/11/2020 13:55,-185,-231,-241,-202,-3,1621
D,25/11/2020 13:55,-185,-232,-241,-202,-3,1619
D,25/11/2020 13:55,-185,-232,-241,-202,-3,1620
D,25/11/2020 13:55,-185,-232,-241,-202,-3,1622
E,25/11/2020 13:57,-185,-231,-241,-202,-7,0
E,25/11/2020 13:57,-185,-231,-241,-202,-3,0
E,25/11/2020 13:57,-185,-231,-241,-202,-4,0
E,25/11/2020 13:57,-185,-231,-241,-202,-6,0
E,25/11/2020 13:57,-185,-231,-241,-202,-6,92
E,25/11/2020 13:57,-185,-231,-241,-202,-5,338
E,25/11/2020 13:57,-185,-231,-241,-202,-2,613
E,25/11/2020 13:57,-185,-231,-241,-202,-1,854
E,25/11/2020 13:57,-185,-231,-241,-202,-1,1017
E,25/11/2020 13:57,-185,-231,-241,-202,5,1099
E,25/11/2020 13:57,-185,-231,-241,-202,15,1255
E,25/11/2020 13:57,-185,-231,-241,-202,21,1287
E,25/11/2020 13:57,-185,-231,-241,-202,27,1409
E,25/11/2020 13:57,-185,-231,-241,-202,35,1612
E,25/11/2020 13:57,-185,-231,-241,-202,41,1786
E,25/11/2020 13:57,-185,-231,-241,-202,44,2049
E,25/11/2020 13:57,-185,-231,-241,-202,46,2154
E,25/11/2020 13:57,-185,-231,-241,-202,49,2217
E,25/11/2020 13:57,-185,-231,-241,-202,46,2296
E,25/11/2020 13:57,-185,-231,-241,-202,49,2352
E,25/11/2020 13:57,-185,-231,-241,-202,43,2399
E,25/11/2020 13:57,-185,-231,-241,-202,41,2435
E,25/11/2020 13:57,-185,-231,-241,-202,40,2452
E,25/11/2020 13:57,-185,-231,-241,-202,41,2434
E,25/11/2020 13:57,-185,-231,-241,-202,43,2247
E,25/11/2020 13:57,-185,-231,-241,-202,40,2081
E,25/11/2020 13:57,-185,-231,-241,-201,34,1901
E,25/11/2020 13:57,-185,-231,-241,-201,24,1706
E,25/11/2020 13:57,-185,-231,-241,-201,20,1535
E,25/11/2020 13:57,-185,-231,-241,-201,16,1328
E,25/11/2020 13:57,-185,-231,-241,-201,10,1382
E,25/11/2020 13:57,-185,-231,-241,-201,6,1184
E,25/11/2020 13:57,-185,-231,-241,-201,4,1123
E,25/11/2020 13:57,-185,-231,-241,-201,0,842
E,25/11/2020 13:57,-185,-231,-241,-201,0,617
E,25/11/2020 13:57,-185,-231,-241,-201,0,473
E,25/11/2020 13:57,-185,-231,-241,-201,2,298
E,25/11/2020 13:57,-185,-231,-241,-201,0,23
E,25/11/2020 13:57,-185,-231,-241,-201,-2,0
E,25/11/2020 13:57,-185,-231,-241,-201,-2,3
E,25/11/2020 13:57,-185,-231,-241,-201,-1,24
E,25/11/2020 13:57,-185,-231,-241,-201,-3,8
E,25/11/2020 13:57,-185,-231,-241,-201,-4,0
E,25/11/2020 13:57,-185,-231,-241,-201,-4,0
E,25/11/2020 13:57,-185,-231,-241,-201,-4,0
E,25/11/2020 13:57,-185,-231,-241,-201,-4,0
E,25/11/2020 13:57,-185,-231,-241,-201,-4,0
F,25/11/2020 17:06,-187,-235,-243,-203,-4,1627
F,25/11/2020 17:06,-187,-235,-243,-203,-4,1626
F,25/11/2020 17:06,-187,-234,-243,-203,-5,1612
F,25/11/2020 17:06,-187,-235,-243,-202,-4,1627
F,25/11/2020 17:06,-187,-235,-243,-202,-4,1626
F,25/11/2020 17:06,-187,-235,-243,-202,-4,1627
F,25/11/2020 17:06,-187,-235,-243,-202,-4,1627
F,25/11/2020 17:06,-187,-234,-243,-202,-4,1626
F,25/11/2020 17:06,-187,-235,-243,-202,-4,1627
F,25/11/2020 17:06,-187,-234,-243,-203,-4,1626
F,25/11/2020 17:06,-187,-235,-243,-202,-4,1628
F,25/11/2020 17:06,-187,-234,-243,-202,-4,1627
F,25/11/2020 17:06,-187,-234,-243,-202,-4,1626
F,25/11/2020 17:06,-187,-234,-243,-202,-4,1627

